Level	Rule Name	Subject	Property	Value
ERROR	missing_label	obo:ONTOAVIDA_00001200	rdfs:label	
ERROR	missing_label	RO:0002443	rdfs:label	
ERROR	missing_label	RO:0002444	rdfs:label	
ERROR	missing_label	RO:0002445	rdfs:label	
WARN	missing_definition	obo:ONTOAVIDA_00001200	IAO:0000115	
WARN	missing_definition	RO:0002443	IAO:0000115	
