term identifier	label	textual definition	characteristic	type	subproperty	domain	range
ID	AL rdfs:label@en	AL IAO:0000115@en	CHARACTERISTIC	TYPE	SP %	DOMAIN	RANGE
ONTOAVIDA:00000006	gestation time	Number of instruction codes executed by a digital organism to produce a viable offspring.		data property	owl:topDataProperty	GSSO:009994	xsd:integer
ONTOAVIDA:00000019	virtual CPU	Virtual central processing unit (CPU) that executes the instruction codes of a digital organism's genome. It can take two values: 'default' (virtual CPU running on the default hardware: it consists of a memory space with four heads pointing to specific locations in that memory, three registers, two stacks, and input and output buffers) and 'transsmt' (virtual CPU running on the Transsmt hardware: it consists of a memory space with four heads pointing to specific locations in that memory, four stacks, and input and output buffers).	functional	data property	owl:topDataProperty	GSSO:009994
ONTOAVIDA:00000015	doi	Character string used as a permanent identifier for a digital object, in a format controlled by the International DOI Foundation.	functional	data property	owl:topDataProperty	FBcv:0000212	xsd:string
ONTOAVIDA:00000197	number of tandem repetitions	Number of times that a tandem repeat is executed by a digital organism.	functional	data property	owl:topDataProperty	ONTOAVIDA:00000124	xsd:integer
